Power with simglm
…
power_out <- sim_pow(fixed = fixed, fixed_param = fixed_param, 
                     cov_param = cov_param, n = n, error_var = error_var,
                     with_err_gen = with_err_gen, data_str = "single",
                     pow_param = pow_param, alpha = alpha,
                     pow_dist = pow_dist, pow_tail = pow_tail, 
                     replicates = replicates, terms_vary = terms_vary)
power_out

## # A tibble: 240 x 11
## # Groups:   var, n, error_var, fixed_param [?]
##            var     n error_var         fixed_param
##         <fctr> <dbl>     <dbl>              <fctr>
##  1 (Intercept)    20         5 0.5,1.1,0.6,0.9,1.1
##  2 (Intercept)    20         5 0.5,1.1,0.6,0.9,1.1
##  3 (Intercept)    20         5 0.6,1.1,0.6,0.9,1.1
##  4 (Intercept)    20         5 0.6,1.1,0.6,0.9,1.1
##  5 (Intercept)    20        10 0.5,1.1,0.6,0.9,1.1
##  6 (Intercept)    20        10 0.5,1.1,0.6,0.9,1.1
##  7 (Intercept)    20        10 0.6,1.1,0.6,0.9,1.1
##  8 (Intercept)    20        10 0.6,1.1,0.6,0.9,1.1
##  9 (Intercept)    20        20 0.5,1.1,0.6,0.9,1.1
## 10 (Intercept)    20        20 0.5,1.1,0.6,0.9,1.1
## # ... with 230 more rows, and 7 more variables: lm_fit_mod <fctr>,
## #   avg_test_stat <dbl>, sd_test_stat <dbl>, power <dbl>,
## #   num_reject <dbl>, num_repl <dbl>, data <list>
…
## Warning: glm.fit: algorithm did not converge

## Warning: glm.fit: fitted probabilities numerically 0 or 1 occurred

## Warning: glm.fit: fitted probabilities numerically 0 or 1 occurred

power_out

## # A tibble: 30 x 9
## # Groups:   var, n [?]
##            var     n fixed_param avg_test_stat sd_test_stat power
##         <fctr> <dbl>      <fctr>         <dbl>        <dbl> <dbl>
##  1 (Intercept)    20 0.5,0.1,0.2     1.2532056    0.5452253   0.0
##  2 (Intercept)    20 0.6,0.1,0.2     0.6418442    0.6165474   0.0
##  3 (Intercept)    40 0.5,0.1,0.2     1.6335148    0.7007165   0.1
##  4 (Intercept)    40 0.6,0.1,0.2     1.4600937    0.6766618   0.1
##  5 (Intercept)    60 0.5,0.1,0.2     1.2774841    0.8152388   0.0
##  6 (Intercept)    60 0.6,0.1,0.2     1.8918550    0.7959895   0.2
##  7 (Intercept)    80 0.5,0.1,0.2     1.3396153    0.9382061   0.1
##  8 (Intercept)    80 0.6,0.1,0.2     2.2675546    1.2499084   0.4
##  9 (Intercept)   100 0.5,0.1,0.2     1.9007975    0.9094621   0.1
## 10 (Intercept)   100 0.6,0.1,0.2     2.2761739    0.8134314   0.4
## # ... with 20 more rows, and 3 more variables: num_reject <dbl>,
## #   num_repl <dbl>, data <list>
